2019-12-15 02:28:29,061 INFO: MyPosterApp startup [in /home/stefanos/Documents/CW2/CW2/app/__init__.py:45]
2019-12-15 03:12:13,161 INFO: MyPosterApp startup [in /home/stefanos/Documents/CW2/CW2/app/__init__.py:45]
2019-12-15 03:12:56,878 WARNING: invalid username signup [in /home/stefanos/Documents/CW2/CW2/app/views.py:44]
2019-12-15 03:13:28,650 INFO: invalid email signup [in /home/stefanos/Documents/CW2/CW2/app/views.py:41]
2019-12-16 10:56:26,042 INFO: MyPosterApp startup [in /home/stefanos/Documents/CW2/CW2/app/__init__.py:45]
2019-12-16 10:59:23,225 INFO: New User created: steven [in /home/stefanos/Documents/CW2/CW2/app/authenticate.py:30]
2019-12-16 10:59:34,141 INFO: User with id 2 successfully logged in [in /home/stefanos/Documents/CW2/CW2/app/views.py:96]
2019-12-16 10:59:34,141 INFO: rerouting to homelogged [in /home/stefanos/Documents/CW2/CW2/app/views.py:99]
2019-12-16 10:59:36,400 INFO: User Posts fetched [in /home/stefanos/Documents/CW2/CW2/app/views.py:159]
2019-12-16 10:59:40,777 INFO: Fetching Spooky Posts... [in /home/stefanos/Documents/CW2/CW2/app/views.py:145]
2019-12-16 11:00:47,399 INFO: MyPosterApp startup [in /home/stefanos/Documents/CW2/CW2/app/__init__.py:45]
2019-12-16 11:01:40,989 INFO: MyPosterApp startup [in /home/stefanos/Documents/CW2/CW2/app/__init__.py:45]
2019-12-16 11:02:16,292 INFO: MyPosterApp startup [in /home/stefanos/Documents/CW2/CW2/app/__init__.py:45]
2019-12-16 11:22:03,227 INFO: MyPosterApp startup [in /home/stefanos/Documents/CW2/CW2/app/__init__.py:45]
2019-12-16 11:22:21,750 INFO: Fetching Awesome Posts... [in /home/stefanos/Documents/CW2/CW2/app/views.py:123]
2019-12-16 11:23:44,262 INFO: handling post request [in /home/stefanos/Documents/CW2/CW2/app/views.py:200]
2019-12-16 11:23:44,262 INFO: Fetching User post idea image [in /home/stefanos/Documents/CW2/CW2/app/views.py:202]
2019-12-16 11:23:44,262 INFO: Saving post image to server... [in /home/stefanos/Documents/CW2/CW2/app/postimg.py:18]
2019-12-16 11:23:44,263 INFO: Saving image post path to database...  [in /home/stefanos/Documents/CW2/CW2/app/postimg.py:21]
2019-12-16 11:23:44,263 INFO: Fetching User location... [in /home/stefanos/Documents/CW2/CW2/app/views.py:209]
2019-12-16 11:23:44,750 INFO: User Posts fetched [in /home/stefanos/Documents/CW2/CW2/app/views.py:159]
2019-12-16 11:23:53,245 INFO: Fetching Awesome Posts... [in /home/stefanos/Documents/CW2/CW2/app/views.py:123]
2019-12-16 11:24:10,719 INFO: Fetching Funny Posts... [in /home/stefanos/Documents/CW2/CW2/app/views.py:134]
2019-12-16 11:26:41,884 INFO: User with id 2 successfully logged in [in /home/stefanos/Documents/CW2/CW2/app/views.py:96]
2019-12-16 11:26:41,885 INFO: rerouting to homelogged [in /home/stefanos/Documents/CW2/CW2/app/views.py:99]
2019-12-16 11:27:56,664 INFO: MyPosterApp startup [in /home/stefanos/Documents/CW2/CW2/app/__init__.py:45]
2019-12-16 11:27:56,729 INFO: New User created: stefanos [in /home/stefanos/Documents/CW2/CW2/app/authenticate.py:30]
2019-12-16 11:27:56,731 WARNING: Invalid Username login [in /home/stefanos/Documents/CW2/CW2/app/authenticate.py:48]
2019-12-16 11:27:56,731 WARNING: Invalid password login [in /home/stefanos/Documents/CW2/CW2/app/authenticate.py:53]
2019-12-16 11:27:56,759 INFO: New User created: stefanos [in /home/stefanos/Documents/CW2/CW2/app/authenticate.py:30]
2019-12-16 11:27:56,760 WARNING: invalid username signup [in /home/stefanos/Documents/CW2/CW2/app/authenticate.py:14]
2019-12-16 11:27:56,761 WARNING: invalid email signup [in /home/stefanos/Documents/CW2/CW2/app/authenticate.py:18]
2019-12-16 11:29:08,147 INFO: MyPosterApp startup [in /home/stefanos/Documents/CW2/CW2/app/__init__.py:45]
2019-12-16 11:29:08,216 INFO: New User created: id = 1 [in /home/stefanos/Documents/CW2/CW2/app/authenticate.py:30]
2019-12-16 11:29:08,217 WARNING: Invalid Username login [in /home/stefanos/Documents/CW2/CW2/app/authenticate.py:48]
2019-12-16 11:29:08,218 WARNING: Invalid password login [in /home/stefanos/Documents/CW2/CW2/app/authenticate.py:53]
2019-12-16 11:29:08,248 INFO: New User created: id = 1 [in /home/stefanos/Documents/CW2/CW2/app/authenticate.py:30]
2019-12-16 11:29:08,249 WARNING: invalid username signup [in /home/stefanos/Documents/CW2/CW2/app/authenticate.py:14]
2019-12-16 11:29:08,250 WARNING: invalid email signup [in /home/stefanos/Documents/CW2/CW2/app/authenticate.py:18]
2019-12-16 11:52:48,927 INFO: MyPosterApp startup [in /home/stefanos/Documents/CW2/CW2/app/__init__.py:45]
2019-12-16 11:53:14,286 INFO: New User created: id = 2 [in /home/stefanos/Documents/CW2/CW2/app/authenticate.py:30]
2019-12-16 11:53:22,826 INFO: User with id 2 successfully logged in [in /home/stefanos/Documents/CW2/CW2/app/views.py:96]
2019-12-16 11:53:22,827 INFO: rerouting to homelogged [in /home/stefanos/Documents/CW2/CW2/app/views.py:99]
2019-12-16 11:53:27,321 INFO: User Posts fetched [in /home/stefanos/Documents/CW2/CW2/app/views.py:159]
2019-12-16 11:53:35,995 INFO: Fetching Spooky Posts... [in /home/stefanos/Documents/CW2/CW2/app/views.py:145]
2019-12-16 11:53:37,904 INFO: Fetching Funny Posts... [in /home/stefanos/Documents/CW2/CW2/app/views.py:134]
2019-12-16 11:53:43,866 INFO: Fetching Spooky Posts... [in /home/stefanos/Documents/CW2/CW2/app/views.py:145]
2019-12-16 11:53:46,923 INFO: User Posts fetched [in /home/stefanos/Documents/CW2/CW2/app/views.py:159]
2019-12-16 11:54:03,568 INFO: handling post request [in /home/stefanos/Documents/CW2/CW2/app/views.py:200]
2019-12-16 11:54:03,568 INFO: Fetching User post idea image [in /home/stefanos/Documents/CW2/CW2/app/views.py:202]
2019-12-16 11:54:03,623 INFO: User Posts fetched [in /home/stefanos/Documents/CW2/CW2/app/views.py:159]
2019-12-16 11:54:40,705 INFO: handling post request [in /home/stefanos/Documents/CW2/CW2/app/views.py:200]
2019-12-16 11:54:40,706 INFO: Fetching User post idea image [in /home/stefanos/Documents/CW2/CW2/app/views.py:202]
2019-12-16 11:54:40,707 INFO: Saving post image to server... [in /home/stefanos/Documents/CW2/CW2/app/postimg.py:28]
2019-12-16 11:54:40,709 INFO: Saving image post path to database...  [in /home/stefanos/Documents/CW2/CW2/app/postimg.py:31]
2019-12-16 11:54:40,710 INFO: Fetching User location... [in /home/stefanos/Documents/CW2/CW2/app/views.py:209]
2019-12-16 11:54:41,241 INFO: User Posts fetched [in /home/stefanos/Documents/CW2/CW2/app/views.py:159]
2019-12-16 11:55:06,208 INFO: Fetching Funny Posts... [in /home/stefanos/Documents/CW2/CW2/app/views.py:134]
2019-12-16 11:55:08,659 INFO: User Posts fetched [in /home/stefanos/Documents/CW2/CW2/app/views.py:159]
2019-12-16 11:55:12,399 INFO: Fetching Awesome Posts... [in /home/stefanos/Documents/CW2/CW2/app/views.py:123]
2019-12-16 12:42:44,975 INFO: MyPosterApp startup [in /home/stefanos/Documents/CW2/CW2/app/__init__.py:45]
2019-12-16 12:42:45,114 INFO: New User created: id = 1 [in /home/stefanos/Documents/CW2/CW2/app/authenticate.py:30]
2019-12-16 12:42:45,116 WARNING: Invalid Username login [in /home/stefanos/Documents/CW2/CW2/app/authenticate.py:48]
2019-12-16 12:42:45,118 WARNING: Invalid password login [in /home/stefanos/Documents/CW2/CW2/app/authenticate.py:53]
2019-12-16 12:42:45,163 INFO: New User created: id = 1 [in /home/stefanos/Documents/CW2/CW2/app/authenticate.py:30]
2019-12-16 12:42:45,165 WARNING: invalid username signup [in /home/stefanos/Documents/CW2/CW2/app/authenticate.py:14]
2019-12-16 12:42:45,168 WARNING: invalid email signup [in /home/stefanos/Documents/CW2/CW2/app/authenticate.py:18]
2019-12-16 12:44:20,730 INFO: MyPosterApp startup [in /home/stefanos/Documents/CW2/CW2/app/__init__.py:45]
2019-12-16 12:44:21,497 INFO: New User created: id = 1 [in /home/stefanos/Documents/CW2/CW2/app/authenticate.py:30]
2019-12-16 12:44:21,502 WARNING: Invalid Username login [in /home/stefanos/Documents/CW2/CW2/app/authenticate.py:48]
2019-12-16 12:44:21,506 WARNING: Invalid password login [in /home/stefanos/Documents/CW2/CW2/app/authenticate.py:53]
2019-12-16 12:44:21,582 INFO: New User created: id = 1 [in /home/stefanos/Documents/CW2/CW2/app/authenticate.py:30]
2019-12-16 12:44:21,586 WARNING: invalid username signup [in /home/stefanos/Documents/CW2/CW2/app/authenticate.py:14]
2019-12-16 12:44:21,595 WARNING: invalid email signup [in /home/stefanos/Documents/CW2/CW2/app/authenticate.py:18]
2019-12-16 12:44:51,341 INFO: MyPosterApp startup [in /home/stefanos/Documents/CW2/CW2/app/__init__.py:45]
2019-12-16 12:44:52,009 INFO: New User created: id = 1 [in /home/stefanos/Documents/CW2/CW2/app/authenticate.py:30]
2019-12-16 12:44:52,012 WARNING: Invalid Username login [in /home/stefanos/Documents/CW2/CW2/app/authenticate.py:48]
2019-12-16 12:44:52,013 WARNING: Invalid password login [in /home/stefanos/Documents/CW2/CW2/app/authenticate.py:53]
2019-12-16 12:44:52,061 INFO: New User created: id = 1 [in /home/stefanos/Documents/CW2/CW2/app/authenticate.py:30]
2019-12-16 12:44:52,064 WARNING: invalid username signup [in /home/stefanos/Documents/CW2/CW2/app/authenticate.py:14]
2019-12-16 12:44:52,067 WARNING: invalid email signup [in /home/stefanos/Documents/CW2/CW2/app/authenticate.py:18]
2019-12-16 12:54:47,555 INFO: MyPosterApp startup [in /home/stefanos/Documents/CW2/CW2/app/__init__.py:45]
2019-12-16 12:54:48,287 INFO: New User created: id = 1 [in /home/stefanos/Documents/CW2/CW2/app/authenticate.py:30]
2019-12-16 12:54:48,289 WARNING: Invalid Username login [in /home/stefanos/Documents/CW2/CW2/app/authenticate.py:48]
2019-12-16 12:54:48,291 WARNING: Invalid password login [in /home/stefanos/Documents/CW2/CW2/app/authenticate.py:53]
2019-12-16 12:54:48,334 INFO: New User created: id = 1 [in /home/stefanos/Documents/CW2/CW2/app/authenticate.py:30]
2019-12-16 12:54:48,336 WARNING: invalid username signup [in /home/stefanos/Documents/CW2/CW2/app/authenticate.py:14]
2019-12-16 12:54:48,338 WARNING: invalid email signup [in /home/stefanos/Documents/CW2/CW2/app/authenticate.py:18]
2019-12-16 12:56:17,121 INFO: MyPosterApp startup [in /home/stefanos/Documents/CW2/CW2/app/__init__.py:45]
2019-12-16 12:56:17,877 INFO: New User created: id = 1 [in /home/stefanos/Documents/CW2/CW2/app/authenticate.py:30]
